Row,OAtot,MG2tot
1,4.103821959592,11.2269630142338
2,21.3965845615998,26.8793893408074
3,55.9594919844035,52.2627937057432
4,109.497274650384,74.1865330169855
5,135.76598927241,114.359484860395
6,204.776667289925,207.854275809394
7,249.088742575891,268.498313647348
8,491.651800792414,357.494200592174
